127.0.0.1 - - [15/Jul/2021:09:52:55 -0300] "GET / HTTP/1.1" 404 687
0:0:0:0:0:0:0:1 - - [15/Jul/2021:09:54:15 -0300] "GET /HolaSpringFrameWork/Index.jsp HTTP/1.1" 404 674
0:0:0:0:0:0:0:1 - - [15/Jul/2021:09:54:17 -0300] "GET /favicon.ico HTTP/1.1" 404 698
0:0:0:0:0:0:0:1 - - [15/Jul/2021:09:54:28 -0300] "GET /HolaSpringFrameWork/home HTTP/1.1" 404 715
127.0.0.1 - - [15/Jul/2021:09:57:17 -0300] "GET / HTTP/1.1" 404 687
0:0:0:0:0:0:0:1 - - [15/Jul/2021:09:57:33 -0300] "GET /HolaSpringFrameWork/home HTTP/1.1" 404 610
0:0:0:0:0:0:0:1 - - [15/Jul/2021:09:58:06 -0300] "GET /HolaSpringFrameWork/Index.jsp HTTP/1.1" 404 674
0:0:0:0:0:0:0:1 - - [15/Jul/2021:09:58:37 -0300] "GET /HolaSpringFrameWork/views/Index.jsp HTTP/1.1" 404 684
0:0:0:0:0:0:0:1 - - [15/Jul/2021:09:59:19 -0300] "GET /HolaSpringFrameWork/views/Index.jsp HTTP/1.1" 404 684
127.0.0.1 - - [15/Jul/2021:10:00:33 -0300] "GET / HTTP/1.1" 404 687
0:0:0:0:0:0:0:1 - - [15/Jul/2021:10:00:53 -0300] "GET /HolaSpringFrameWork/Index.jsp HTTP/1.1" 404 674
127.0.0.1 - - [15/Jul/2021:19:09:23 -0300] "GET / HTTP/1.1" 404 687
127.0.0.1 - - [15/Jul/2021:19:52:00 -0300] "GET / HTTP/1.1" 404 687
127.0.0.1 - - [15/Jul/2021:19:54:27 -0300] "GET / HTTP/1.1" 404 687
0:0:0:0:0:0:0:1 - - [15/Jul/2021:20:29:35 -0300] "GET /HolaSpringFrameWork/Index.jsp HTTP/1.1" 404 610
0:0:0:0:0:0:0:1 - - [15/Jul/2021:20:29:37 -0300] "GET /favicon.ico HTTP/1.1" 404 698
0:0:0:0:0:0:0:1 - - [15/Jul/2021:20:29:51 -0300] "GET /HolaSpringFrameWork/home HTTP/1.1" 404 610
0:0:0:0:0:0:0:1 - - [15/Jul/2021:20:31:52 -0300] "GET /HolaSpringFrameWork/views/Index.jsp HTTP/1.1" 404 610
127.0.0.1 - - [15/Jul/2021:20:36:27 -0300] "GET / HTTP/1.1" 404 687
0:0:0:0:0:0:0:1 - - [15/Jul/2021:20:37:56 -0300] "GET /HolaSpringFrameWork/views/home HTTP/1.1" 404 610
0:0:0:0:0:0:0:1 - - [15/Jul/2021:20:38:11 -0300] "GET /HolaSpringFrameWork/home HTTP/1.1" 404 610
0:0:0:0:0:0:0:1 - - [15/Jul/2021:21:00:56 -0300] "GET /HolaSpringFrameWork/home HTTP/1.1" 404 610
127.0.0.1 - - [15/Jul/2021:21:01:57 -0300] "GET / HTTP/1.1" 404 687
0:0:0:0:0:0:0:1 - - [15/Jul/2021:21:02:34 -0300] "GET /HolaSpringFrameWork/home HTTP/1.1" 200 184
0:0:0:0:0:0:0:1 - - [15/Jul/2021:21:03:01 -0300] "GET /HolaSpringFrameWork/views/Index.jsp HTTP/1.1" 404 684
0:0:0:0:0:0:0:1 - - [15/Jul/2021:21:03:16 -0300] "GET /HolaSpringFrameWork/home HTTP/1.1" 200 184
127.0.0.1 - - [15/Jul/2021:21:29:46 -0300] "GET / HTTP/1.1" 404 687
0:0:0:0:0:0:0:1 - - [15/Jul/2021:21:30:13 -0300] "GET /HolaSpringFrameWork/home HTTP/1.1" 200 184
0:0:0:0:0:0:0:1 - - [15/Jul/2021:21:30:24 -0300] "GET /HolaSpringFrameWork/home HTTP/1.1" 200 184
127.0.0.1 - - [15/Jul/2021:21:41:43 -0300] "GET / HTTP/1.1" 404 687
0:0:0:0:0:0:0:1 - - [15/Jul/2021:21:42:09 -0300] "GET /HolaSpringFrameWork HTTP/1.1" 302 -
0:0:0:0:0:0:0:1 - - [15/Jul/2021:21:42:19 -0300] "GET /HolaSpringFrameWork/ HTTP/1.1" 200 188
0:0:0:0:0:0:0:1 - - [15/Jul/2021:21:42:19 -0300] "GET /HolaSpringFrameWork/ HTTP/1.1" 200 188
0:0:0:0:0:0:0:1 - - [15/Jul/2021:21:42:29 -0300] "GET /HolaSpringFrameWork/home HTTP/1.1" 200 184
0:0:0:0:0:0:0:1 - - [15/Jul/2021:21:45:15 -0300] "GET /HolaSpringFrameWor HTTP/1.1" 404 705
0:0:0:0:0:0:0:1 - - [15/Jul/2021:21:45:20 -0300] "GET /HolaSpringFrameWork HTTP/1.1" 302 -
0:0:0:0:0:0:0:1 - - [15/Jul/2021:21:45:23 -0300] "GET /HolaSpringFrameWork/ HTTP/1.1" 200 188
0:0:0:0:0:0:0:1 - - [15/Jul/2021:21:48:03 -0300] "GET /HolaSpringFrameWork HTTP/1.1" 302 -
0:0:0:0:0:0:0:1 - - [15/Jul/2021:21:48:04 -0300] "GET /HolaSpringFrameWork/ HTTP/1.1" 200 187
